<svg width="64" height="22" viewBox="0 0 64 22" fill="none" xmlns="http://www.w3.org/2000/svg">
<path fill-rule="evenodd" clip-rule="evenodd" d="M16.4361 3.28767C16.0071 3.70436 15.5782 4.12105 15.1492 4.53774C14.4752 5.17502 13.8869 5.8981 13.3477 6.65794C12.7349 7.51583 12.2079 8.41048 11.8402 9.40318C11.5339 10.2243 11.35 11.0822 11.2642 11.9523C11.0436 14.1706 11.6932 16.1805 12.7471 18.0924C12.9923 18.5458 13.2619 18.9993 13.5315 19.4772C13.3232 19.3302 13.1026 19.1831 12.9065 19.0238C12.0486 18.3252 11.2152 17.5776 10.4554 16.7688C9.22981 15.4574 8.23711 13.999 7.5508 12.3323C6.90126 10.739 6.70517 9.06003 6.85224 7.36876C6.97479 6.0084 7.30569 4.67255 7.93072 3.42248C7.95524 3.37346 7.95524 3.32444 8.05328 3.31218C8.05328 3.59406 8.01651 3.87594 8.01651 4.14556C8.01651 5.18728 7.89396 6.24125 8.18809 7.27072C8.29839 7.63838 8.44546 8.00605 8.8744 8.06733C9.16853 8.1041 9.46267 7.95703 9.72003 7.79771C10.6637 7.23395 11.4603 6.48636 12.3182 5.82457C13.2129 5.13826 14.083 4.41518 15.0757 3.87594C15.5046 3.64308 15.9336 3.39797 16.3625 3.16512C16.4116 3.18963 16.4238 3.23865 16.4361 3.28767Z" fill="white"/>
<path fill-rule="evenodd" clip-rule="evenodd" d="M5.0997 20.1513C6.16593 20.6538 7.26893 21.0459 8.4332 21.2665C8.93568 21.3646 9.43816 21.4259 9.94063 21.4259C11.0681 21.4136 12.1834 21.242 13.2496 20.8008C14.1443 20.4209 14.9531 19.9184 15.713 19.3424C16.3013 18.9135 16.7915 18.3742 17.2817 17.835C17.4778 17.6266 17.3797 17.2957 17.3307 17.0384C17.1101 15.8864 17.3062 14.8814 18.1886 14.048C18.544 13.7171 18.8014 13.3004 19.0097 12.8592C19.0833 12.7244 19.1813 12.5529 19.3406 12.6019C19.5 12.6386 19.5612 12.8225 19.5735 12.9941C19.6225 13.4598 19.4999 13.901 19.2916 14.3177C19.1813 14.5382 19.0833 14.7588 19.0833 15.004C19.071 15.3716 19.2181 15.4574 19.549 15.2736C19.8921 15.0897 20.076 14.7588 20.272 14.4402C20.8235 13.4965 21.0196 12.4303 21.2402 11.3763C21.326 10.9596 21.4118 10.5307 21.6202 10.1508C21.6692 10.0527 21.7305 9.95468 21.8162 9.88115C21.8898 9.81987 21.9388 9.72183 22.0491 9.7831C22.1349 9.83213 22.0859 9.93017 22.0981 10.0037C22.1471 10.3836 22.1717 10.7758 22.1594 11.1557C22.1226 12.7122 21.804 14.2074 21.1299 15.629C20.5172 16.9281 19.7083 18.0801 18.6543 19.0483C17.3675 20.2371 15.8723 21.0827 14.1688 21.5729C12.882 21.9528 11.5706 22.0509 10.2593 21.9774C9.00921 21.9161 7.79592 21.5974 6.6439 21.095C6.08014 20.8498 5.52864 20.5925 5.03842 20.2126C5.03842 20.1758 5.07519 20.1635 5.0997 20.1513Z" fill="white"/>
<path fill-rule="evenodd" clip-rule="evenodd" d="M0.0381612 12.4303C-0.280483 7.71191 1.38627 3.99848 5.41834 1.62091C9.46267 -0.768919 13.5315 -0.413508 17.4533 2.01309C17.4533 2.04985 17.441 2.07436 17.441 2.11113C17.0734 1.95181 16.7057 1.78023 16.338 1.62091C15.1983 1.13069 14.034 0.812045 12.7839 0.68949C11.1907 0.542423 9.70778 0.861067 8.28613 1.54738C7.29344 2.02534 6.42329 2.68714 5.61443 3.44698C5.51638 3.53277 5.41834 3.63082 5.3203 3.71661C4.75654 4.13329 4.71977 4.7093 4.83007 5.34659C4.97714 6.26576 4.83007 7.09913 4.15602 7.80995C3.75159 8.22664 3.38392 8.6801 3.12656 9.21934C3.06528 9.35415 2.95498 9.50122 2.7834 9.46445C2.63633 9.42768 2.61182 9.26836 2.58731 9.1213C2.46476 8.5698 2.73438 8.10409 2.91821 7.62612C2.99174 7.43003 3.10204 7.2462 3.08979 7.0256C3.06528 6.71921 2.91821 6.62117 2.66085 6.76823C2.26867 7.00109 2.0113 7.36875 1.80296 7.76093C1.36176 8.55754 1.16567 9.43994 0.981837 10.3346C0.871537 10.8616 0.773493 11.3886 0.540638 11.8788C0.442594 12.0871 0.320038 12.271 0.0381612 12.4303Z" fill="white"/>
<path fill-rule="evenodd" clip-rule="evenodd" d="M15.1737 7.08687C14.8061 7.83446 14.4139 8.58204 14.1933 9.39091C14.132 9.59925 14.0462 9.79534 14.1075 10.0159C14.2546 10.4817 14.4629 10.5307 15.0879 10.4204C16.2522 10.212 17.3675 9.78309 18.5318 9.56249C19.1936 9.43993 19.8431 9.31737 20.5907 9.34189C19.9779 9.55023 19.4387 9.72181 18.9117 9.95466C17.6248 10.5184 16.4483 11.2415 15.5291 12.3077C14.7693 13.1779 14.2791 14.1828 14.083 15.3348C13.985 15.9231 13.9482 16.5114 13.9727 17.0996C13.985 17.5776 14.034 18.0433 14.1443 18.509C14.1565 18.558 14.1443 18.6193 14.0953 18.6929C13.8501 18.2149 13.5805 17.7369 13.3722 17.2467C13.0168 16.3888 12.6981 15.5309 12.5265 14.6118C12.2324 13.0798 12.3182 11.5846 12.931 10.1262C13.4212 8.93745 14.2178 7.95701 15.1737 7.08687Z" fill="white"/>
<path fill-rule="evenodd" clip-rule="evenodd" d="M5.27126 17.6266C5.05066 17.6266 4.81781 17.6144 4.59721 17.6266C4.42563 17.6389 4.38886 17.5776 4.38886 17.4183C4.40112 17.0261 4.37661 16.6339 4.40112 16.254C4.42563 15.9476 4.30308 15.9109 4.03345 15.9231C3.66579 15.9476 3.28587 15.9231 2.90595 15.9231C2.75888 15.9231 2.6976 15.8864 2.6976 15.727C2.70986 15.2736 2.70986 14.8201 2.6976 14.3789C2.6976 14.1951 2.77113 14.1828 2.9182 14.1828C3.32263 14.1951 3.71481 14.1706 4.11924 14.1951C4.36435 14.2073 4.41338 14.1216 4.40112 13.901C4.38886 13.5088 4.40112 13.1166 4.38886 12.7367C4.38886 12.5528 4.41338 12.4548 4.64623 12.4671C5.08743 12.4916 5.52863 12.4793 5.96983 12.4671C6.14141 12.4671 6.19043 12.5161 6.19043 12.6877C6.17817 13.1289 6.20268 13.5701 6.19043 14.0113C6.19043 14.1706 6.22719 14.1951 6.37426 14.1951C6.8032 14.1828 7.23215 14.2073 7.66109 14.1828C7.84492 14.1828 7.88169 14.2319 7.88169 14.4034C7.86944 14.8446 7.86944 15.2858 7.88169 15.727C7.88169 15.8741 7.85718 15.9231 7.67335 15.9231C7.23215 15.9109 6.8032 15.9721 6.36201 15.9476C6.17817 15.9354 6.20268 15.9844 6.20268 16.107C6.20268 16.5482 6.19043 16.9894 6.19043 17.4306C6.19043 17.5899 6.14141 17.6389 5.98208 17.6389C5.73697 17.6144 5.50412 17.6266 5.27126 17.6266Z" fill="white"/>
<path fill-rule="evenodd" clip-rule="evenodd" d="M10.0754 6.42507C9.29108 6.36379 8.73958 5.89808 8.67831 5.06471C8.64154 4.46419 9.26657 3.74111 9.80581 3.7166C10.8475 3.67983 11.399 4.21908 11.4113 5.00343C11.4235 5.82455 10.9211 6.32703 10.0754 6.42507Z" fill="white"/>
<path fill-rule="evenodd" clip-rule="evenodd" d="M15.8968 7.9325C16.4116 7.9325 16.7792 8.31242 16.7915 8.8149C16.816 9.32963 16.387 9.72181 15.8846 9.73406C15.3576 9.74632 14.9409 9.32963 14.9654 8.80264C14.9899 8.32468 15.3576 7.89573 15.8968 7.9325Z" fill="white"/>
<path fill-rule="evenodd" clip-rule="evenodd" d="M16.4361 3.28766C16.3625 3.2754 16.3625 3.21412 16.3625 3.15285C16.4606 3.10382 16.5464 3.06706 16.6444 3.01804C16.6567 3.03029 16.6689 3.04255 16.6689 3.0548C16.5831 3.14059 16.5096 3.21412 16.4361 3.28766Z" fill="white"/>
<path fill-rule="evenodd" clip-rule="evenodd" d="M5.09969 20.1513C5.07518 20.1758 5.05067 20.2003 5.02615 20.2126C4.9036 20.139 4.78104 20.0655 4.60947 19.9675C4.85458 19.9675 4.95262 20.1023 5.09969 20.1513Z" fill="white"/>
<path d="M35.625 11.8201C35.4444 11.8201 35.25 11.8201 35.0139 11.8062C34.7778 11.7923 34.5278 11.7784 34.2778 11.7506C34.0278 11.7228 33.7778 11.6812 33.5278 11.6395C33.2778 11.5978 33.0556 11.5284 32.8472 11.4451C32.2778 11.2367 32 10.8617 32 10.3201V3.1395C32 2.93116 32.0556 2.7645 32.1806 2.6395C32.2917 2.52838 32.4583 2.43116 32.6667 2.36172C33.0139 2.23672 33.4444 2.15338 33.9722 2.09783C34.5 2.04227 35.0278 2.0145 35.5833 2.0145C36.8889 2.0145 37.9028 2.23672 38.6111 2.68116C39.3194 3.12561 39.6667 3.80616 39.6667 4.72283C39.6667 5.18116 39.5278 5.58394 39.2639 5.91727C39 6.25061 38.6389 6.50061 38.1944 6.65339C38.7083 6.79227 39.1389 7.05616 39.4722 7.43116C39.8194 7.80616 39.9861 8.29227 39.9861 8.86172C39.9861 9.87561 39.6111 10.6256 38.8611 11.1117C38.125 11.5839 37.0417 11.8201 35.625 11.8201ZM34.625 5.90339H35.75C36.1944 5.90339 36.5139 5.82005 36.7083 5.65339C36.9028 5.48672 37.0139 5.25061 37.0139 4.93116C37.0139 4.65339 36.9028 4.43116 36.6667 4.2645C36.4306 4.09783 36.0833 4.0145 35.625 4.0145C35.4722 4.0145 35.2917 4.0145 35.0972 4.02839C34.9028 4.04227 34.7361 4.05616 34.625 4.07005V5.90339V5.90339ZM34.625 9.65339C34.7639 9.69505 34.9583 9.72283 35.1806 9.73672C35.4028 9.75061 35.625 9.7645 35.8194 9.7645C36.2361 9.7645 36.5694 9.68116 36.8472 9.5145C37.125 9.34783 37.25 9.08394 37.25 8.72283C37.25 8.3895 37.1389 8.1395 36.9167 8.00061C36.6944 7.86172 36.3472 7.77839 35.8889 7.77839H34.625V9.65339Z" fill="white"/>
<path d="M44.2222 11.5139C44.1111 11.5417 43.9306 11.5694 43.6944 11.6111C43.4583 11.6389 43.2083 11.6528 42.9861 11.6528C42.75 11.6528 42.5417 11.6389 42.3611 11.5972C42.1805 11.5556 42.0278 11.5 41.9028 11.4028C41.7778 11.3056 41.6944 11.1806 41.625 11.0139C41.5694 10.8472 41.5278 10.6389 41.5278 10.375V2.26389C41.6389 2.25 41.8194 2.22222 42.0694 2.18056C42.3194 2.13889 42.5555 2.125 42.7778 2.125C43.0139 2.125 43.2222 2.13889 43.4028 2.18056C43.5833 2.22222 43.7361 2.27778 43.8611 2.375C43.9861 2.47222 44.0694 2.59722 44.1389 2.76389C44.1944 2.93056 44.2361 3.13889 44.2361 3.40278V11.5139H44.2222Z" fill="white"/>
<path d="M48.8611 7.875C48.4167 7.72222 48 7.56944 47.625 7.40278C47.25 7.25 46.9444 7.05556 46.6667 6.81945C46.4028 6.59722 46.1944 6.31944 46.0417 6.01389C45.8889 5.69444 45.8194 5.31945 45.8194 4.875C45.8194 4 46.1528 3.30556 46.8333 2.77778C47.5 2.25 48.4444 2 49.6528 2C50.0972 2 50.5 2.02778 50.8889 2.09722C51.2639 2.15278 51.5972 2.25 51.8611 2.375C52.1389 2.5 52.3472 2.66667 52.5 2.86111C52.6528 3.05556 52.7361 3.29167 52.7361 3.55556C52.7361 3.81944 52.6806 4.05556 52.5556 4.23611C52.4306 4.43056 52.2778 4.58333 52.1111 4.72222C51.8889 4.58333 51.5833 4.45833 51.2083 4.34722C50.8333 4.23611 50.4167 4.18056 49.9583 4.18056C49.5 4.18056 49.1528 4.25 48.9444 4.375C48.7222 4.5 48.625 4.66667 48.625 4.86111C48.625 5.01389 48.6944 5.13889 48.8194 5.23611C48.9583 5.33333 49.1528 5.41667 49.4167 5.5L50.2361 5.76389C51.1944 6.06944 51.9444 6.45833 52.4583 6.94445C52.9722 7.41667 53.2361 8.06945 53.2361 8.88889C53.2361 9.76389 52.8889 10.4583 52.2083 11C51.5278 11.5417 50.5139 11.8056 49.1806 11.8056C48.7083 11.8056 48.2639 11.7639 47.8611 11.6944C47.4583 11.6111 47.0972 11.5 46.8056 11.3611C46.5 11.2083 46.2639 11.0278 46.0972 10.8056C45.9306 10.5833 45.8472 10.3333 45.8472 10.0417C45.8472 9.75 45.9306 9.48611 46.1111 9.27778C46.2917 9.06945 46.4722 8.90278 46.6806 8.79167C46.9722 9.01389 47.3194 9.20833 47.7361 9.375C48.1528 9.54167 48.6111 9.625 49.0972 9.625C49.5972 9.625 49.9583 9.54167 50.1528 9.38889C50.3611 9.23611 50.4583 9.05556 50.4583 8.84722C50.4583 8.63889 50.375 8.48611 50.2083 8.375C50.0417 8.26389 49.8194 8.16667 49.5139 8.05556L48.8611 7.875Z" fill="white"/>
<path d="M56.7361 2.52777C56.9167 2.43055 57.1806 2.33332 57.5278 2.2361C57.875 2.13888 58.2361 2.09721 58.5972 2.09721C59.1111 2.09721 59.5695 2.16666 59.9583 2.31944C60.3472 2.47221 60.6111 2.70832 60.7222 3.01388C60.9028 3.54166 61.1111 4.16666 61.3195 4.87499C61.5417 5.58333 61.75 6.31944 61.9722 7.06944C62.1806 7.81944 62.4028 8.56944 62.5972 9.30555C62.8056 10.0417 62.9861 10.6805 63.1389 11.25C63.0139 11.3889 62.8333 11.5139 62.5833 11.5972C62.3333 11.6805 62.0417 11.7222 61.7083 11.7222C61.4583 11.7222 61.25 11.7083 61.0833 11.6667C60.9167 11.625 60.7778 11.5694 60.6667 11.4861C60.5556 11.4028 60.4722 11.2917 60.4028 11.1667C60.3333 11.0278 60.2778 10.875 60.2222 10.7083L59.9445 9.65277H57.1667C57.0833 9.95833 57 10.2778 56.9167 10.6111C56.8333 10.9444 56.75 11.25 56.6667 11.5694C56.5278 11.625 56.375 11.6667 56.2083 11.6944C56.0556 11.7361 55.8611 11.75 55.625 11.75C55.0972 11.75 54.7083 11.6667 54.4583 11.4861C54.2083 11.3055 54.0833 11.0555 54.0833 10.7361C54.0833 10.5972 54.0972 10.4444 54.1389 10.3055C54.1806 10.1667 54.2222 9.9861 54.2778 9.79166C54.3472 9.51388 54.4445 9.16666 54.5833 8.76388C54.7083 8.34721 54.8472 7.91666 55 7.43055C55.1528 6.95833 55.3195 6.45833 55.4861 5.95833C55.6667 5.45833 55.8195 4.9861 55.9722 4.54166C56.125 4.09721 56.2639 3.69444 56.3889 3.34721C56.5695 2.9861 56.6667 2.72221 56.7361 2.52777ZM58.5833 4.51388C58.4445 4.94444 58.2778 5.43055 58.0972 5.95833C57.9167 6.4861 57.75 7.02777 57.6111 7.56944H59.5139C59.375 7.01388 59.2222 6.47221 59.0695 5.94444C58.9167 5.41666 58.7917 4.94444 58.6667 4.52777H58.5833V4.51388Z" fill="white"/>
<path d="M33.1389 16.4028C33.0972 16.4028 33.0555 16.4028 33 16.4028C32.9444 16.4028 32.8889 16.3889 32.8333 16.3889C32.7778 16.375 32.7222 16.375 32.6528 16.3611C32.5972 16.3472 32.5417 16.3333 32.5 16.3194C32.3611 16.2639 32.3055 16.1806 32.3055 16.0556V14.375C32.3055 14.3194 32.3194 14.2917 32.3472 14.2639C32.375 14.2361 32.4167 14.2083 32.4583 14.1944C32.5417 14.1667 32.6389 14.1389 32.7639 14.125C32.8889 14.1111 33.0139 14.1111 33.1389 14.1111C33.4444 14.1111 33.6805 14.1667 33.8472 14.2639C34.0139 14.3611 34.0972 14.5278 34.0972 14.75C34.0972 14.8611 34.0694 14.9583 34 15.0278C33.9305 15.1111 33.8472 15.1667 33.75 15.1944C33.875 15.2222 33.9722 15.2917 34.0555 15.375C34.1389 15.4583 34.1805 15.5694 34.1805 15.7083C34.1805 15.9444 34.0972 16.125 33.9167 16.2361C33.7222 16.3472 33.4722 16.4028 33.1389 16.4028ZM32.9028 15.0139H33.1667C33.2639 15.0139 33.3472 15 33.3889 14.9583C33.4305 14.9167 33.4583 14.8611 33.4583 14.7917C33.4583 14.7222 33.4305 14.6806 33.375 14.6389C33.3194 14.5972 33.2361 14.5833 33.125 14.5833C33.0833 14.5833 33.0417 14.5833 33 14.5833C32.9583 14.5833 32.9167 14.5833 32.8889 14.5972V15.0139H32.9028ZM32.9028 15.9028C32.9305 15.9167 32.9861 15.9167 33.0278 15.9167C33.0833 15.9167 33.125 15.9167 33.1805 15.9167C33.2778 15.9167 33.3611 15.9028 33.4167 15.8611C33.4861 15.8194 33.5139 15.7639 33.5139 15.6806C33.5139 15.5972 33.4861 15.5417 33.4305 15.5139C33.375 15.4861 33.2917 15.4583 33.1944 15.4583H32.9028V15.9028Z" fill="white"/>
<path d="M35.4028 16.4028C35.2639 16.4028 35.125 16.3889 35.0139 16.3472C34.8889 16.3055 34.7917 16.25 34.6944 16.1667C34.5972 16.0833 34.5278 15.9861 34.4861 15.8611C34.4305 15.7361 34.4028 15.5972 34.4028 15.4444C34.4028 15.2917 34.4305 15.1528 34.4861 15.0278C34.5417 14.9167 34.6111 14.8194 34.6944 14.75C34.7778 14.6805 34.875 14.625 34.9861 14.5833C35.0972 14.5417 35.2083 14.5278 35.3194 14.5278C35.4444 14.5278 35.5694 14.5417 35.6667 14.5833C35.7778 14.625 35.8611 14.6805 35.9305 14.7361C36 14.8055 36.0694 14.8889 36.1111 14.9722C36.1528 15.0694 36.1805 15.1667 36.1805 15.2778C36.1805 15.3611 36.1528 15.4167 36.1111 15.4722C36.0694 15.5139 36 15.5417 35.9167 15.5555L35.0278 15.6944C35.0555 15.7778 35.1111 15.8333 35.1944 15.875C35.2778 15.9167 35.375 15.9305 35.4722 15.9305C35.5694 15.9305 35.6667 15.9167 35.75 15.8889C35.8333 15.8611 35.9028 15.8333 35.9583 15.8055C36 15.8333 36.0278 15.8611 36.0555 15.9028C36.0833 15.9444 36.0972 15.9861 36.0972 16.0417C36.0972 16.1528 36.0417 16.2361 35.9444 16.2778C35.8611 16.3194 35.7778 16.3472 35.6805 16.3611C35.5694 16.4028 35.4861 16.4028 35.4028 16.4028ZM35.2917 14.9861C35.2361 14.9861 35.1805 15 35.1389 15.0139C35.0972 15.0278 35.0694 15.0555 35.0417 15.0833C35.0139 15.1111 35 15.1528 34.9861 15.1805C34.9722 15.2222 34.9583 15.25 34.9583 15.2917L35.5694 15.1944C35.5555 15.1528 35.5417 15.0972 35.4861 15.0555C35.4583 15.0139 35.3889 14.9861 35.2917 14.9861Z" fill="white"/>
<path d="M37.0694 16.3472C37.0417 16.3611 37.0139 16.3611 36.9583 16.375C36.9028 16.3889 36.8472 16.3889 36.7917 16.3889C36.7361 16.3889 36.6944 16.3889 36.6528 16.375C36.6111 16.3611 36.5694 16.3472 36.5417 16.3333C36.5139 16.3056 36.4861 16.2778 36.4722 16.25C36.4583 16.2083 36.4444 16.1667 36.4444 16.0972V15.0139C36.4444 14.9583 36.4583 14.9167 36.4722 14.875C36.4861 14.8333 36.5278 14.8056 36.5556 14.7639C36.5972 14.7361 36.6389 14.7083 36.6944 14.6806C36.75 14.6528 36.8056 14.6389 36.875 14.6111C36.9444 14.5972 37.0139 14.5833 37.0833 14.5694C37.1528 14.5556 37.2222 14.5556 37.2917 14.5556C37.4028 14.5556 37.5 14.5833 37.5694 14.625C37.6389 14.6667 37.6667 14.7361 37.6667 14.8472C37.6667 14.875 37.6667 14.9167 37.6528 14.9444C37.6389 14.9722 37.625 15 37.6111 15.0278C37.5556 15.0278 37.5139 15.0278 37.4583 15.0417C37.4028 15.0417 37.3472 15.0556 37.3056 15.0694C37.25 15.0833 37.2083 15.0833 37.1667 15.0972C37.125 15.1111 37.0833 15.125 37.0556 15.1389V16.3472H37.0694Z" fill="white"/>
<path d="M39.4167 15.8194C39.4167 16 39.3472 16.1389 39.2083 16.25C39.0694 16.3472 38.875 16.4028 38.5972 16.4028C38.5 16.4028 38.4028 16.3889 38.3194 16.375C38.2361 16.3611 38.1528 16.3333 38.0972 16.3056C38.0417 16.2778 37.9861 16.2361 37.9583 16.1944C37.9167 16.1528 37.9028 16.0972 37.9028 16.0278C37.9028 15.9722 37.9167 15.9167 37.9444 15.875C37.9722 15.8333 38 15.8056 38.0278 15.7778C38.0972 15.8194 38.1806 15.8472 38.2639 15.875C38.3611 15.9028 38.4583 15.9167 38.5694 15.9167C38.6389 15.9167 38.6944 15.9028 38.7361 15.8889C38.7778 15.8611 38.7917 15.8333 38.7917 15.8056C38.7917 15.7778 38.7778 15.75 38.75 15.7222C38.7222 15.7083 38.6667 15.6806 38.6111 15.6806L38.5 15.6528C38.2917 15.6111 38.1389 15.5417 38.0278 15.4583C37.9306 15.375 37.875 15.25 37.875 15.0833C37.875 15 37.8889 14.9167 37.9306 14.8472C37.9722 14.7778 38.0278 14.7083 38.0972 14.6667C38.1667 14.625 38.25 14.5833 38.3472 14.5556C38.4444 14.5278 38.5556 14.5139 38.6667 14.5139C38.75 14.5139 38.8333 14.5139 38.9167 14.5278C39 14.5417 39.0694 14.5556 39.125 14.5833C39.1806 14.6111 39.2222 14.6389 39.2639 14.6806C39.2917 14.7222 39.3194 14.7778 39.3194 14.8333C39.3194 14.8889 39.3056 14.9306 39.2917 14.9722C39.2778 15.0139 39.25 15.0417 39.2083 15.0694C39.1944 15.0556 39.1667 15.0417 39.125 15.0278C39.0833 15.0139 39.0417 15 39 14.9861C38.9583 14.9722 38.9028 14.9722 38.8611 14.9583C38.8194 14.9444 38.7778 14.9444 38.7361 14.9444C38.6528 14.9444 38.5972 14.9583 38.5556 14.9722C38.5139 14.9861 38.4861 15.0139 38.4861 15.0556C38.4861 15.0833 38.5 15.0972 38.5278 15.125C38.5556 15.1389 38.5972 15.1528 38.6667 15.1667L38.7778 15.1944C39.0139 15.25 39.1667 15.3194 39.2639 15.4167C39.3611 15.5556 39.4167 15.6806 39.4167 15.8194Z" fill="white"/>
<path d="M40.4722 14.5417C40.5972 14.5417 40.7222 14.5555 40.8333 14.5833C40.9444 14.6111 41.0278 14.6528 41.1111 14.7083C41.1805 14.7639 41.25 14.8333 41.2917 14.9167C41.3333 15 41.3472 15.0972 41.3472 15.2083V16.0139C41.3472 16.0833 41.3333 16.125 41.2917 16.1667C41.25 16.2083 41.2083 16.2361 41.1667 16.2639C41.0139 16.3611 40.7917 16.4028 40.5 16.4028C40.375 16.4028 40.2639 16.3889 40.1528 16.3611C40.0555 16.3333 39.9583 16.3055 39.8889 16.25C39.8194 16.2083 39.7639 16.1389 39.7222 16.0694C39.6805 16 39.6667 15.9028 39.6667 15.8055C39.6667 15.6389 39.7222 15.5139 39.8194 15.4167C39.9167 15.3333 40.0694 15.2778 40.2778 15.25L40.75 15.1944V15.1667C40.75 15.0972 40.7222 15.0417 40.6528 15.0139C40.5972 14.9861 40.5 14.9722 40.3889 14.9722C40.2917 14.9722 40.2083 14.9861 40.125 15C40.0417 15.0139 39.9583 15.0417 39.8889 15.0694C39.8611 15.0417 39.8333 15.0139 39.8055 14.9722C39.7778 14.9305 39.7778 14.875 39.7778 14.8333C39.7778 14.7639 39.7917 14.7222 39.8194 14.6805C39.8472 14.6389 39.8889 14.6111 39.9583 14.5833C40.0278 14.5555 40.1111 14.5417 40.2083 14.5278C40.2917 14.5417 40.3889 14.5417 40.4722 14.5417ZM40.5 15.9583C40.5417 15.9583 40.5833 15.9583 40.6389 15.9444C40.6944 15.9305 40.7222 15.9305 40.75 15.9167V15.625L40.4861 15.6528C40.4167 15.6528 40.3611 15.6667 40.3194 15.6944C40.2778 15.7222 40.25 15.75 40.25 15.8055C40.25 15.8472 40.2639 15.8889 40.3055 15.9167C40.3472 15.9444 40.4167 15.9583 40.5 15.9583Z" fill="white"/>
<path d="M42.5556 14.5417C42.6528 14.5417 42.75 14.5556 42.8472 14.5833C42.9444 14.6111 43.0278 14.6528 43.0972 14.7083C43.1667 14.6667 43.25 14.625 43.3472 14.5833C43.4444 14.5556 43.5417 14.5417 43.6806 14.5417C43.7778 14.5417 43.8611 14.5556 43.9444 14.5833C44.0278 14.6111 44.1111 14.6389 44.1806 14.6944C44.25 14.75 44.3056 14.8194 44.3472 14.9028C44.3889 14.9861 44.4028 15.0972 44.4028 15.2083V16.3472C44.375 16.3611 44.3472 16.3611 44.2917 16.375C44.2361 16.3889 44.1806 16.3889 44.125 16.3889C44.0694 16.3889 44.0278 16.3889 43.9861 16.375C43.9444 16.3611 43.9028 16.3472 43.875 16.3333C43.8472 16.3056 43.8194 16.2778 43.8056 16.25C43.7917 16.2083 43.7778 16.1667 43.7778 16.0972V15.2361C43.7778 15.1667 43.7639 15.1111 43.7222 15.0833C43.6806 15.0556 43.625 15.0278 43.5556 15.0278C43.5278 15.0278 43.4861 15.0417 43.4444 15.0556C43.4028 15.0694 43.375 15.0833 43.3611 15.1111C43.3611 15.125 43.3611 15.125 43.3611 15.1389C43.3611 15.1528 43.3611 15.1528 43.3611 15.1667V16.375C43.3333 16.3889 43.2917 16.3889 43.25 16.4028C43.1944 16.4167 43.1389 16.4167 43.0972 16.4167C43.0417 16.4167 43 16.4167 42.9583 16.4028C42.9167 16.3889 42.875 16.375 42.8472 16.3611C42.8194 16.3333 42.7917 16.3056 42.7778 16.2778C42.7639 16.2361 42.75 16.1944 42.75 16.125V15.2639C42.75 15.1944 42.7222 15.1389 42.6806 15.1111C42.6389 15.0833 42.5833 15.0556 42.5139 15.0556C42.4722 15.0556 42.4306 15.0556 42.4028 15.0695C42.375 15.0833 42.3472 15.0972 42.3194 15.1111V16.375C42.2917 16.3889 42.2639 16.3889 42.2083 16.4028C42.1528 16.4167 42.0972 16.4167 42.0417 16.4167C41.9861 16.4167 41.9444 16.4167 41.9028 16.4028C41.8611 16.3889 41.8194 16.375 41.7917 16.3611C41.7639 16.3333 41.7361 16.3056 41.7222 16.2778C41.7083 16.2361 41.6944 16.1944 41.6944 16.125V15.0278C41.6944 14.9583 41.7083 14.9167 41.7361 14.875C41.7639 14.8333 41.8056 14.8056 41.8472 14.7639C41.9306 14.7083 42.0278 14.6528 42.1528 14.625C42.2917 14.5556 42.4167 14.5417 42.5556 14.5417Z" fill="white"/>
<path d="M45.4861 14.5417C45.6111 14.5417 45.7361 14.5555 45.8472 14.5833C45.9583 14.6111 46.0417 14.6528 46.125 14.7083C46.1944 14.7639 46.2639 14.8333 46.3056 14.9167C46.3472 15 46.3611 15.0972 46.3611 15.2083V16.0139C46.3611 16.0833 46.3472 16.125 46.3056 16.1667C46.2639 16.2083 46.2222 16.2361 46.1806 16.2639C46.0278 16.3611 45.8056 16.4028 45.5139 16.4028C45.3889 16.4028 45.2778 16.3889 45.1667 16.3611C45.0694 16.3333 44.9722 16.3055 44.9028 16.25C44.8333 16.2083 44.7778 16.1389 44.7361 16.0694C44.6944 16 44.6806 15.9028 44.6806 15.8055C44.6806 15.6389 44.7361 15.5139 44.8333 15.4167C44.9306 15.3333 45.0833 15.2778 45.2917 15.25L45.7639 15.1944V15.1667C45.7639 15.0972 45.7361 15.0417 45.6667 15.0139C45.6111 14.9861 45.5139 14.9722 45.4028 14.9722C45.3056 14.9722 45.2222 14.9861 45.1389 15C45.0556 15.0139 44.9722 15.0417 44.9028 15.0694C44.875 15.0417 44.8472 15.0139 44.8194 14.9722C44.7917 14.9305 44.7917 14.875 44.7917 14.8333C44.7917 14.7639 44.8056 14.7222 44.8333 14.6805C44.8611 14.6389 44.9167 14.6111 44.9722 14.5833C45.0417 14.5555 45.125 14.5417 45.2222 14.5278C45.3194 14.5417 45.4028 14.5417 45.4861 14.5417ZM45.5139 15.9583C45.5556 15.9583 45.5972 15.9583 45.6528 15.9444C45.7083 15.9305 45.7361 15.9305 45.7639 15.9167V15.625L45.5 15.6528C45.4306 15.6528 45.375 15.6667 45.3333 15.6944C45.2917 15.7222 45.2639 15.75 45.2639 15.8055C45.2639 15.8472 45.2778 15.8889 45.3194 15.9167C45.3611 15.9444 45.4306 15.9583 45.5139 15.9583Z" fill="white"/>
<path d="M48.1389 16.3333C48.1111 16.3472 48.0695 16.3472 48.0139 16.3611C47.9583 16.375 47.9028 16.375 47.8472 16.375C47.7917 16.375 47.7361 16.375 47.6944 16.3611C47.6528 16.3472 47.6111 16.3333 47.5833 16.3194C47.5556 16.2917 47.5278 16.2639 47.5139 16.2361C47.5 16.1944 47.4861 16.1528 47.4861 16.0833V14.1805C47.5139 14.1805 47.5556 14.1667 47.6111 14.1667C47.6667 14.1528 47.7222 14.1528 47.7778 14.1528C47.8333 14.1528 47.8889 14.1528 47.9306 14.1667C47.9722 14.1805 48.0139 14.1944 48.0417 14.2083C48.0694 14.2361 48.0972 14.2639 48.1111 14.3055C48.125 14.3472 48.1389 14.3889 48.1389 14.4583V16.3333Z" fill="white"/>
<path d="M49.6667 15.2361C49.6667 15.1667 49.6389 15.1111 49.5972 15.0695C49.5556 15.0278 49.5 15.0139 49.4306 15.0139C49.3889 15.0139 49.3333 15.0139 49.2917 15.0278C49.25 15.0417 49.2083 15.0556 49.1667 15.0833V16.3333C49.1389 16.3472 49.1111 16.3472 49.0556 16.3611C49 16.375 48.9444 16.375 48.8889 16.375C48.8333 16.375 48.7917 16.375 48.75 16.3611C48.7083 16.3472 48.6667 16.3333 48.6389 16.3195C48.6111 16.2917 48.5833 16.2639 48.5695 16.2361C48.5556 16.1944 48.5417 16.1528 48.5417 16.0833V15C48.5417 14.9306 48.5556 14.8889 48.5833 14.8472C48.6111 14.8056 48.6528 14.7639 48.6945 14.7361C48.7778 14.6806 48.875 14.625 49 14.5972C49.125 14.5556 49.2639 14.5417 49.4167 14.5417C49.6945 14.5417 49.9028 14.5972 50.0417 14.7222C50.1945 14.8472 50.2639 15 50.2639 15.2222V16.3472C50.2361 16.3611 50.2083 16.3611 50.1528 16.375C50.0972 16.3889 50.0417 16.3889 49.9861 16.3889C49.9306 16.3889 49.8889 16.3889 49.8472 16.375C49.8056 16.3611 49.7639 16.3472 49.7361 16.3333C49.7083 16.3056 49.6806 16.2778 49.6667 16.25C49.6528 16.2083 49.6389 16.1667 49.6389 16.0972V15.2361H49.6667Z" fill="white"/>
<path d="M50.5833 15.4722C50.5833 15.3194 50.6111 15.1805 50.6528 15.0555C50.6945 14.9444 50.7639 14.8472 50.8472 14.7639C50.9306 14.6806 51.0278 14.625 51.1528 14.5972C51.2639 14.5556 51.3889 14.5417 51.5278 14.5417C51.5695 14.5417 51.625 14.5417 51.6667 14.5555C51.7083 14.5694 51.75 14.5694 51.7778 14.5833V14C51.8056 13.9861 51.8333 13.9861 51.8889 13.9722C51.9445 13.9583 52 13.9583 52.0556 13.9583C52.1111 13.9583 52.1528 13.9583 52.1945 13.9722C52.2361 13.9861 52.2778 14 52.3056 14.0139C52.3333 14.0417 52.3611 14.0694 52.375 14.0972C52.3889 14.1389 52.4028 14.1806 52.4028 14.25V15.9583C52.4028 16.0694 52.3472 16.1667 52.25 16.2361C52.1806 16.2778 52.0833 16.3194 51.9861 16.3611C51.875 16.4028 51.75 16.4167 51.5972 16.4167C51.4445 16.4167 51.3056 16.3889 51.1806 16.3472C51.0556 16.3056 50.9583 16.2361 50.8611 16.1528C50.7778 16.0694 50.7083 15.9722 50.6667 15.8611C50.6111 15.75 50.5833 15.6111 50.5833 15.4722ZM51.6111 15.0139C51.4861 15.0139 51.375 15.0555 51.3056 15.125C51.2361 15.1944 51.1945 15.3194 51.1945 15.4583C51.1945 15.6111 51.2222 15.7222 51.2917 15.7917C51.3611 15.8611 51.4445 15.9028 51.5695 15.9028C51.6111 15.9028 51.6528 15.9028 51.6806 15.8889C51.7222 15.875 51.7361 15.8611 51.7639 15.8472V15.0555C51.7361 15.0278 51.6806 15.0139 51.6111 15.0139Z" fill="white"/>
<path d="M54.5972 15.4722C54.5972 15.625 54.5695 15.75 54.5278 15.875C54.4861 15.9861 54.4167 16.0833 54.3333 16.1667C54.25 16.25 54.1528 16.3056 54.0417 16.3472C53.9306 16.3889 53.7917 16.4028 53.6528 16.4028C53.5139 16.4028 53.375 16.375 53.2639 16.3333C53.1528 16.2917 53.0556 16.2222 52.9722 16.1528C52.8889 16.0695 52.8195 15.9722 52.7778 15.8611C52.7361 15.75 52.7083 15.6111 52.7083 15.4722C52.7083 15.3333 52.7361 15.1944 52.7778 15.0833C52.8195 14.9722 52.8889 14.875 52.9722 14.7917C53.0556 14.7083 53.1528 14.6528 53.2639 14.6111C53.375 14.5694 53.5139 14.5417 53.6528 14.5417C53.7917 14.5417 53.9167 14.5694 54.0417 14.6111C54.1528 14.6528 54.25 14.7222 54.3333 14.8056C54.4167 14.8889 54.4861 14.9861 54.5278 15.0972C54.5695 15.2083 54.5972 15.3333 54.5972 15.4722ZM53.3333 15.4722C53.3333 15.625 53.3611 15.7361 53.4167 15.8056C53.4722 15.8889 53.5556 15.9167 53.6528 15.9167C53.75 15.9167 53.8333 15.875 53.8889 15.7917C53.9445 15.7083 53.9722 15.5972 53.9722 15.4583C53.9722 15.3194 53.9445 15.2083 53.8889 15.125C53.8333 15.0417 53.75 15.0139 53.6528 15.0139C53.5556 15.0139 53.4722 15.0556 53.4167 15.125C53.3611 15.2222 53.3333 15.3333 53.3333 15.4722Z" fill="white"/>
<path d="M56 15.2361C56 15.1667 55.9722 15.1111 55.9306 15.0695C55.8889 15.0278 55.8333 15.0139 55.7639 15.0139C55.7222 15.0139 55.6667 15.0139 55.625 15.0278C55.5833 15.0417 55.5417 15.0556 55.5 15.0833V16.3333C55.4722 16.3472 55.4444 16.3472 55.3889 16.3611C55.3333 16.375 55.2778 16.375 55.2222 16.375C55.1667 16.375 55.125 16.375 55.0833 16.3611C55.0417 16.3472 55 16.3333 54.9722 16.3195C54.9444 16.2917 54.9167 16.2639 54.9028 16.2361C54.8889 16.1944 54.875 16.1528 54.875 16.0833V15C54.875 14.9306 54.8889 14.8889 54.9167 14.8472C54.9444 14.8056 54.9861 14.7639 55.0278 14.7361C55.1111 14.6806 55.2083 14.625 55.3333 14.5972C55.4583 14.5556 55.5972 14.5417 55.75 14.5417C56.0278 14.5417 56.2361 14.5972 56.375 14.7222C56.5278 14.8472 56.5972 15 56.5972 15.2222V16.3472C56.5694 16.3611 56.5417 16.3611 56.4861 16.375C56.4306 16.3889 56.375 16.3889 56.3194 16.3889C56.2639 16.3889 56.2222 16.3889 56.1806 16.375C56.1389 16.3611 56.0972 16.3472 56.0694 16.3333C56.0417 16.3056 56.0139 16.2778 56 16.25C55.9861 16.2083 55.9722 16.1667 55.9722 16.0972V15.2361H56Z" fill="white"/>
<path d="M57.9306 16.4028C57.7917 16.4028 57.6528 16.3889 57.5417 16.3472C57.4167 16.3055 57.3194 16.25 57.2222 16.1667C57.125 16.0833 57.0556 15.9861 57.0139 15.8611C56.9583 15.7361 56.9306 15.5972 56.9306 15.4444C56.9306 15.2917 56.9583 15.1528 57.0139 15.0278C57.0694 14.9167 57.1389 14.8194 57.2222 14.75C57.3056 14.6805 57.4028 14.625 57.5139 14.5833C57.625 14.5417 57.7361 14.5278 57.8472 14.5278C57.9722 14.5278 58.0972 14.5417 58.1944 14.5833C58.3056 14.625 58.3889 14.6805 58.4583 14.7361C58.5278 14.8055 58.5972 14.8889 58.6389 14.9722C58.6806 15.0694 58.7083 15.1667 58.7083 15.2778C58.7083 15.3611 58.6806 15.4167 58.6389 15.4722C58.5972 15.5139 58.5278 15.5417 58.4444 15.5555L57.5556 15.6944C57.5833 15.7778 57.6389 15.8333 57.7222 15.875C57.8056 15.9167 57.9028 15.9305 58 15.9305C58.0972 15.9305 58.1944 15.9167 58.2778 15.8889C58.3611 15.8611 58.4306 15.8333 58.4861 15.8055C58.5278 15.8333 58.5556 15.8611 58.5833 15.9028C58.6111 15.9444 58.625 15.9861 58.625 16.0417C58.625 16.1528 58.5694 16.2361 58.4722 16.2778C58.3889 16.3194 58.3056 16.3472 58.2083 16.3611C58.0972 16.4028 58.0139 16.4028 57.9306 16.4028ZM57.8194 14.9861C57.7639 14.9861 57.7083 15 57.6667 15.0139C57.625 15.0278 57.5833 15.0555 57.5694 15.0833C57.5417 15.1111 57.5278 15.1528 57.5139 15.1805C57.5 15.2222 57.4861 15.25 57.4861 15.2917L58.0972 15.1944C58.0833 15.1528 58.0694 15.0972 58.0139 15.0555C57.9861 15.0139 57.9167 14.9861 57.8194 14.9861Z" fill="white"/>
<path d="M60.4583 15.8194C60.4583 16 60.3889 16.1389 60.25 16.25C60.1111 16.3472 59.9167 16.4028 59.6389 16.4028C59.5417 16.4028 59.4444 16.3889 59.3611 16.375C59.2778 16.3611 59.1945 16.3333 59.1389 16.3056C59.0833 16.2778 59.0278 16.2361 59 16.1944C58.9583 16.1528 58.9444 16.0972 58.9444 16.0278C58.9444 15.9722 58.9583 15.9167 58.9861 15.875C59.0139 15.8333 59.0417 15.8056 59.0695 15.7778C59.1389 15.8194 59.2222 15.8472 59.3056 15.875C59.3889 15.9028 59.5 15.9167 59.6111 15.9167C59.6806 15.9167 59.7361 15.9028 59.7778 15.8889C59.8194 15.8611 59.8333 15.8333 59.8333 15.8056C59.8333 15.7778 59.8194 15.75 59.7917 15.7222C59.7639 15.7083 59.7083 15.6806 59.6528 15.6806L59.5417 15.6528C59.3333 15.6111 59.1806 15.5417 59.0695 15.4583C58.9722 15.375 58.9167 15.25 58.9167 15.0833C58.9167 15 58.9306 14.9167 58.9722 14.8472C59.0139 14.7778 59.0695 14.7083 59.1389 14.6667C59.2083 14.625 59.2917 14.5833 59.3889 14.5556C59.4861 14.5278 59.5972 14.5139 59.7083 14.5139C59.7917 14.5139 59.875 14.5139 59.9583 14.5278C60.0417 14.5417 60.1111 14.5556 60.1667 14.5833C60.2222 14.6111 60.2639 14.6389 60.3056 14.6806C60.3333 14.7222 60.3611 14.7778 60.3611 14.8333C60.3611 14.8889 60.3472 14.9306 60.3333 14.9722C60.3194 15.0139 60.2917 15.0417 60.25 15.0694C60.2361 15.0556 60.2083 15.0417 60.1667 15.0278C60.125 15.0139 60.0833 15 60.0417 14.9861C60 14.9722 59.9445 14.9722 59.9028 14.9583C59.8611 14.9444 59.8194 14.9444 59.7778 14.9444C59.6944 14.9444 59.6389 14.9583 59.5972 14.9722C59.5556 14.9861 59.5278 15.0139 59.5278 15.0556C59.5278 15.0833 59.5417 15.0972 59.5694 15.125C59.5972 15.1389 59.6389 15.1528 59.7083 15.1667L59.8194 15.1944C60.0556 15.25 60.2083 15.3194 60.3056 15.4167C60.4167 15.5556 60.4583 15.6806 60.4583 15.8194Z" fill="white"/>
<path d="M60.7361 14.1111C60.7361 14.0139 60.7639 13.9444 60.8333 13.875C60.8889 13.8055 60.9722 13.7778 61.0833 13.7778C61.1806 13.7778 61.2639 13.8055 61.3333 13.875C61.3889 13.9444 61.4306 14.0139 61.4306 14.1111C61.4306 14.2083 61.4028 14.2778 61.3333 14.3472C61.2778 14.4167 61.1944 14.4444 61.0833 14.4444C60.9861 14.4444 60.9028 14.4167 60.8333 14.3472C60.7639 14.2778 60.7361 14.1944 60.7361 14.1111ZM61.3889 16.3472C61.3611 16.3472 61.3194 16.3611 61.2778 16.3611C61.2222 16.375 61.1667 16.375 61.125 16.375C61.0694 16.375 61.0278 16.375 60.9861 16.3611C60.9444 16.3472 60.9028 16.3333 60.875 16.3194C60.8472 16.2917 60.8194 16.2639 60.8056 16.2361C60.7917 16.1944 60.7778 16.1528 60.7778 16.0833V14.6111C60.8056 14.6111 60.8472 14.5972 60.8889 14.5972C60.9444 14.5833 61 14.5833 61.0417 14.5833C61.0972 14.5833 61.1389 14.5833 61.1806 14.5972C61.2222 14.6111 61.2639 14.625 61.2917 14.6389C61.3194 14.6667 61.3472 14.6944 61.3611 14.7222C61.375 14.7639 61.3889 14.8055 61.3889 14.875V16.3472Z" fill="white"/>
<path d="M62.5 14.5417C62.625 14.5417 62.75 14.5555 62.8611 14.5833C62.9722 14.6111 63.0556 14.6528 63.1389 14.7083C63.2083 14.7639 63.2778 14.8333 63.3195 14.9167C63.3611 15 63.375 15.0972 63.375 15.2083V16.0139C63.375 16.0833 63.3611 16.125 63.3195 16.1667C63.2778 16.2083 63.2361 16.2361 63.1945 16.2639C63.0417 16.3611 62.8195 16.4028 62.5278 16.4028C62.4028 16.4028 62.2917 16.3889 62.1806 16.3611C62.0833 16.3333 61.9861 16.3055 61.9167 16.25C61.8472 16.2083 61.7917 16.1389 61.75 16.0694C61.7083 16 61.6945 15.9028 61.6945 15.8055C61.6945 15.6389 61.75 15.5139 61.8472 15.4167C61.9445 15.3333 62.0972 15.2778 62.3056 15.25L62.7778 15.1944V15.1667C62.7778 15.0972 62.75 15.0417 62.6806 15.0139C62.625 14.9861 62.5278 14.9722 62.4167 14.9722C62.3195 14.9722 62.2361 14.9861 62.1528 15C62.0695 15.0139 61.9861 15.0417 61.9167 15.0694C61.8889 15.0417 61.8611 15.0139 61.8333 14.9722C61.8056 14.9305 61.8056 14.875 61.8056 14.8333C61.8056 14.7639 61.8195 14.7222 61.8472 14.6805C61.875 14.6389 61.9167 14.6111 61.9861 14.5833C62.0556 14.5555 62.1389 14.5417 62.2361 14.5278C62.3195 14.5417 62.4167 14.5417 62.5 14.5417ZM62.5278 15.9583C62.5695 15.9583 62.6111 15.9583 62.6667 15.9444C62.7222 15.9305 62.75 15.9305 62.7778 15.9167V15.625L62.5139 15.6528C62.4445 15.6528 62.3889 15.6667 62.3472 15.6944C62.3056 15.7222 62.2778 15.75 62.2778 15.8055C62.2778 15.8472 62.2917 15.8889 62.3333 15.9167C62.375 15.9444 62.4306 15.9583 62.5278 15.9583Z" fill="white"/>
<path d="M32.9167 20.0556C32.8056 20.0139 32.7083 19.9861 32.625 19.9444C32.5417 19.9028 32.4583 19.8611 32.4028 19.8056C32.3333 19.75 32.2917 19.6944 32.25 19.6111C32.2083 19.5417 32.1944 19.4444 32.1944 19.3472C32.1944 19.1389 32.2778 18.9722 32.4306 18.8611C32.5833 18.7361 32.8056 18.6806 33.0972 18.6806C33.1944 18.6806 33.2917 18.6944 33.3889 18.7083C33.4722 18.7222 33.5556 18.75 33.625 18.7778C33.6944 18.8056 33.7361 18.8472 33.7778 18.8889C33.8194 18.9306 33.8333 18.9861 33.8333 19.0556C33.8333 19.125 33.8194 19.1667 33.7917 19.2222C33.7639 19.2639 33.7222 19.3056 33.6806 19.3333C33.625 19.3056 33.5556 19.2639 33.4722 19.25C33.3889 19.2222 33.2917 19.2083 33.1806 19.2083C33.0694 19.2083 32.9861 19.2222 32.9444 19.25C32.8889 19.2778 32.875 19.3194 32.875 19.3611C32.875 19.4028 32.8889 19.4306 32.9167 19.4444C32.9444 19.4722 33 19.4861 33.0556 19.5139L33.25 19.5694C33.4722 19.6389 33.6528 19.7361 33.7778 19.8472C33.9028 19.9583 33.9583 20.1111 33.9583 20.3056C33.9583 20.5139 33.875 20.6806 33.7222 20.8056C33.5556 20.9306 33.3194 21 33.0139 21C32.9028 21 32.8056 20.9861 32.7083 20.9722C32.6111 20.9583 32.5278 20.9306 32.4583 20.8889C32.3889 20.8472 32.3333 20.8056 32.2917 20.7639C32.25 20.7083 32.2361 20.6528 32.2361 20.5833C32.2361 20.5139 32.25 20.4583 32.2917 20.4028C32.3333 20.3472 32.375 20.3194 32.4306 20.2917C32.5 20.3472 32.5833 20.3889 32.6806 20.4306C32.7778 20.4722 32.8889 20.4861 33 20.4861C33.1111 20.4861 33.1944 20.4722 33.25 20.4306C33.2917 20.3889 33.3194 20.3472 33.3194 20.3056C33.3194 20.2639 33.3056 20.2222 33.2639 20.1944C33.2222 20.1667 33.1667 20.1389 33.0972 20.125L32.9167 20.0556Z" fill="white"/>
<path d="M35.1667 20.9861C35.0278 20.9861 34.8889 20.9722 34.7778 20.9306C34.6528 20.8889 34.5556 20.8333 34.4583 20.75C34.3611 20.6667 34.2917 20.5694 34.25 20.4444C34.1945 20.3194 34.1667 20.1806 34.1667 20.0278C34.1667 19.875 34.1945 19.7361 34.25 19.6111C34.3056 19.5 34.375 19.4028 34.4583 19.3333C34.5417 19.2639 34.6389 19.2083 34.75 19.1667C34.8611 19.125 34.9722 19.1111 35.0833 19.1111C35.2083 19.1111 35.3333 19.125 35.4306 19.1667C35.5417 19.2083 35.625 19.2639 35.6944 19.3194C35.7639 19.3889 35.8333 19.4722 35.875 19.5556C35.9167 19.6528 35.9445 19.75 35.9445 19.8611C35.9445 19.9444 35.9167 20 35.875 20.0556C35.8333 20.0972 35.7639 20.125 35.6806 20.1389L34.7917 20.2778C34.8194 20.3611 34.875 20.4167 34.9583 20.4583C35.0417 20.5 35.1389 20.5139 35.2361 20.5139C35.3333 20.5139 35.4306 20.5 35.5139 20.4722C35.5972 20.4444 35.6667 20.4167 35.7222 20.3889C35.7639 20.4167 35.7917 20.4444 35.8195 20.4861C35.8472 20.5278 35.8611 20.5694 35.8611 20.625C35.8611 20.7361 35.8056 20.8194 35.7083 20.8611C35.625 20.9028 35.5417 20.9306 35.4445 20.9444C35.3472 20.9861 35.25 20.9861 35.1667 20.9861ZM35.0694 19.5694C35.0139 19.5694 34.9583 19.5833 34.9167 19.5972C34.875 19.6111 34.8333 19.6389 34.8195 19.6667C34.7917 19.6944 34.7778 19.7361 34.7639 19.7639C34.75 19.8056 34.7361 19.8333 34.7361 19.875L35.3472 19.7778C35.3333 19.7361 35.3195 19.6806 35.2639 19.6389C35.2222 19.5972 35.1528 19.5694 35.0694 19.5694Z" fill="white"/>
<path d="M37.9583 20.9306C37.9306 20.9444 37.9028 20.9444 37.8472 20.9583C37.7917 20.9722 37.7361 20.9722 37.6806 20.9722C37.625 20.9722 37.5833 20.9722 37.5417 20.9583C37.5 20.9444 37.4583 20.9306 37.4306 20.9167C37.4028 20.8889 37.375 20.8611 37.3611 20.8333C37.3472 20.7917 37.3333 20.75 37.3333 20.6806V19.875C37.3333 19.7778 37.3056 19.7083 37.2639 19.6667C37.2083 19.625 37.1528 19.6111 37.0833 19.6111C37.0417 19.6111 36.9861 19.6111 36.9445 19.625C36.9028 19.6389 36.8611 19.6528 36.8333 19.6667V20.9306C36.8056 20.9444 36.7778 20.9444 36.7222 20.9583C36.6667 20.9722 36.6111 20.9722 36.5556 20.9722C36.5 20.9722 36.4583 20.9722 36.4167 20.9583C36.375 20.9444 36.3333 20.9306 36.3056 20.9167C36.2778 20.8889 36.25 20.8611 36.2361 20.8333C36.2222 20.7917 36.2083 20.75 36.2083 20.6806V18.5833C36.2361 18.5833 36.2778 18.5694 36.3195 18.5694C36.375 18.5556 36.4306 18.5556 36.4722 18.5556C36.5278 18.5556 36.5695 18.5556 36.6111 18.5694C36.6528 18.5833 36.6945 18.5972 36.7222 18.6111C36.75 18.6389 36.7778 18.6667 36.7917 18.6944C36.8056 18.7361 36.8195 18.7778 36.8195 18.8472V19.1944C36.8472 19.1806 36.9028 19.1667 36.9583 19.1528C37.0278 19.1389 37.0972 19.125 37.1667 19.125C37.4028 19.125 37.5972 19.1806 37.7222 19.3056C37.8611 19.4306 37.9167 19.5972 37.9167 19.8333V20.9306H37.9583Z" fill="white"/>
<path d="M39.0556 19.125C39.1806 19.125 39.3056 19.1389 39.4167 19.1667C39.5278 19.1944 39.6111 19.2361 39.6944 19.2917C39.7639 19.3472 39.8333 19.4167 39.875 19.5C39.9167 19.5833 39.9306 19.6806 39.9306 19.7917V20.5972C39.9306 20.6667 39.9167 20.7083 39.875 20.75C39.8333 20.7917 39.7917 20.8194 39.75 20.8472C39.5972 20.9444 39.375 20.9861 39.0833 20.9861C38.9583 20.9861 38.8472 20.9722 38.7361 20.9444C38.6389 20.9167 38.5417 20.8889 38.4722 20.8333C38.4028 20.7917 38.3472 20.7222 38.3056 20.6528C38.2639 20.5833 38.25 20.4861 38.25 20.3889C38.25 20.2222 38.3056 20.0972 38.4028 20C38.5 19.9167 38.6528 19.8611 38.8611 19.8333L39.3333 19.7778V19.75C39.3333 19.6806 39.3056 19.625 39.2361 19.5972C39.1667 19.5694 39.0833 19.5556 38.9722 19.5556C38.875 19.5556 38.7917 19.5694 38.7083 19.5833C38.625 19.5972 38.5417 19.625 38.4722 19.6528C38.4444 19.625 38.4167 19.5972 38.3889 19.5556C38.3611 19.5139 38.3611 19.4583 38.3611 19.4167C38.3611 19.3472 38.375 19.3056 38.4028 19.2639C38.4306 19.2222 38.4722 19.1944 38.5417 19.1667C38.6111 19.1389 38.6944 19.125 38.7917 19.1111C38.8889 19.125 38.9722 19.125 39.0556 19.125ZM39.0833 20.5417C39.125 20.5417 39.1667 20.5417 39.2222 20.5278C39.2778 20.5139 39.3056 20.5139 39.3333 20.5V20.2083L39.0694 20.2361C39 20.2361 38.9444 20.25 38.9028 20.2778C38.8611 20.3056 38.8333 20.3333 38.8333 20.3889C38.8333 20.4306 38.8472 20.4722 38.8889 20.5C38.9306 20.5278 39 20.5417 39.0833 20.5417Z" fill="white"/>
<path d="M40.9167 20.3333C40.9167 20.4028 40.9306 20.4445 40.9722 20.4722C41.0139 20.5 41.0695 20.5139 41.1389 20.5139C41.1806 20.5139 41.2083 20.5139 41.25 20.5C41.2917 20.5 41.3195 20.4861 41.3472 20.4722C41.375 20.5 41.3889 20.5278 41.4028 20.5556C41.4167 20.5833 41.4306 20.625 41.4306 20.6667C41.4306 20.7639 41.4028 20.8333 41.3333 20.8889C41.2639 20.9445 41.1389 20.9722 40.9722 20.9722C40.7639 20.9722 40.5972 20.9306 40.4861 20.8333C40.375 20.7361 40.3195 20.5833 40.3195 20.3611V18.8195C40.3472 18.8056 40.3889 18.8056 40.4306 18.7917C40.4861 18.7778 40.5278 18.7778 40.5833 18.7778C40.6945 18.7778 40.7778 18.7917 40.8333 18.8333C40.8889 18.875 40.9167 18.9445 40.9167 19.0695V19.3056H41.3889C41.4028 19.3333 41.4167 19.3611 41.4306 19.4028C41.4445 19.4445 41.4445 19.4861 41.4445 19.5278C41.4445 19.6111 41.4306 19.6667 41.3889 19.7083C41.3472 19.75 41.3056 19.7639 41.2361 19.7639H40.9028V20.3333H40.9167Z" fill="white"/>
<path d="M42.9861 18.8056C43.0278 18.7778 43.0833 18.7639 43.1667 18.7361C43.25 18.7083 43.3333 18.7083 43.4167 18.7083C43.5417 18.7083 43.6389 18.7222 43.7361 18.7639C43.8333 18.8055 43.8889 18.8472 43.9167 18.9306C43.9583 19.0556 44 19.2083 44.0556 19.3611C44.1111 19.5278 44.1528 19.6944 44.2083 19.875C44.2639 20.0555 44.3056 20.2222 44.3611 20.4028C44.4028 20.5694 44.4445 20.7222 44.4861 20.8611C44.4583 20.8889 44.4167 20.9167 44.3611 20.9444C44.3056 20.9583 44.2361 20.9722 44.1528 20.9722C44.0972 20.9722 44.0417 20.9722 44 20.9583C43.9583 20.9444 43.9306 20.9306 43.9028 20.9167C43.875 20.9028 43.8611 20.875 43.8472 20.8472C43.8333 20.8194 43.8194 20.7778 43.8056 20.7361L43.7361 20.4861H43.0833C43.0694 20.5556 43.0417 20.6389 43.0278 20.7083C43.0139 20.7917 42.9861 20.8611 42.9722 20.9306C42.9444 20.9444 42.9028 20.9583 42.8611 20.9583C42.8194 20.9722 42.7778 20.9722 42.7222 20.9722C42.5972 20.9722 42.5139 20.9444 42.4444 20.9028C42.3889 20.8611 42.3611 20.8056 42.3611 20.7222C42.3611 20.6944 42.3611 20.6528 42.375 20.625C42.3889 20.5972 42.3889 20.5556 42.4028 20.5C42.4167 20.4306 42.4445 20.3611 42.4722 20.2639C42.5 20.1667 42.5417 20.0694 42.5694 19.9583C42.6111 19.8472 42.6389 19.7361 42.6806 19.6111C42.7222 19.5 42.7639 19.375 42.7917 19.2778C42.8333 19.1667 42.8611 19.0833 42.8889 19C42.9445 18.9167 42.9583 18.8472 42.9861 18.8056ZM43.4167 19.2778C43.3889 19.375 43.3472 19.4861 43.3056 19.6111C43.2639 19.7361 43.2222 19.8611 43.1944 19.9861H43.6389C43.6111 19.8611 43.5694 19.7222 43.5417 19.6111C43.5 19.4861 43.4722 19.375 43.4445 19.2778H43.4167Z" fill="white"/>
<path d="M45.3611 20.9306C45.3333 20.9306 45.2917 20.9445 45.25 20.9445C45.1944 20.9583 45.1389 20.9583 45.0972 20.9583C45.0556 20.9583 45 20.9583 44.9583 20.9445C44.9167 20.9306 44.875 20.9167 44.8472 20.9028C44.8194 20.875 44.7917 20.8472 44.7778 20.8194C44.7639 20.7778 44.75 20.7361 44.75 20.6667V18.5694C44.7778 18.5694 44.8194 18.5556 44.8611 18.5556C44.9167 18.5417 44.9583 18.5417 45.0139 18.5417C45.0694 18.5417 45.1111 18.5417 45.1528 18.5556C45.1944 18.5694 45.2361 18.5833 45.2639 18.5972C45.2917 18.625 45.3194 18.6528 45.3333 18.6806C45.3472 18.7222 45.3611 18.7639 45.3611 18.8333V20.9306Z" fill="white"/>
<path d="M46.4583 19.125C46.5833 19.125 46.7083 19.1389 46.8194 19.1667C46.9305 19.1944 47.0139 19.2361 47.0972 19.2917C47.1667 19.3472 47.2361 19.4167 47.2778 19.5C47.3194 19.5833 47.3333 19.6806 47.3333 19.7917V20.5972C47.3333 20.6667 47.3194 20.7083 47.2778 20.75C47.2361 20.7917 47.1944 20.8194 47.1528 20.8472C47 20.9444 46.7778 20.9861 46.4861 20.9861C46.3611 20.9861 46.25 20.9722 46.1389 20.9444C46.0417 20.9167 45.9444 20.8889 45.875 20.8333C45.8055 20.7917 45.75 20.7222 45.7083 20.6528C45.6667 20.5833 45.6528 20.4861 45.6528 20.3889C45.6528 20.2222 45.7083 20.0972 45.8055 20C45.9028 19.9167 46.0555 19.8611 46.2639 19.8333L46.7361 19.7778V19.75C46.7361 19.6806 46.7083 19.625 46.6389 19.5972C46.5833 19.5694 46.4861 19.5556 46.375 19.5556C46.2778 19.5556 46.1944 19.5694 46.1111 19.5833C46.0278 19.5972 45.9444 19.625 45.875 19.6528C45.8472 19.625 45.8194 19.5972 45.7917 19.5556C45.7639 19.5139 45.7639 19.4583 45.7639 19.4167C45.7639 19.3472 45.7778 19.3056 45.8055 19.2639C45.8333 19.2222 45.8889 19.1944 45.9444 19.1667C46.0139 19.1389 46.0972 19.125 46.1944 19.1111C46.2917 19.125 46.375 19.125 46.4583 19.125ZM46.5 20.5417C46.5417 20.5417 46.5833 20.5417 46.6389 20.5278C46.6944 20.5139 46.7222 20.5139 46.75 20.5V20.2083L46.4861 20.2361C46.4167 20.2361 46.3611 20.25 46.3194 20.2778C46.2778 20.3056 46.25 20.3333 46.25 20.3889C46.25 20.4306 46.2639 20.4722 46.3055 20.5C46.3472 20.5278 46.4028 20.5417 46.5 20.5417Z" fill="white"/>
<path d="M48.5417 19.125C48.6389 19.125 48.7361 19.1389 48.8333 19.1667C48.9306 19.1944 49.0139 19.2361 49.0833 19.2917C49.1528 19.25 49.2361 19.2083 49.3333 19.1667C49.4306 19.1389 49.5278 19.125 49.6667 19.125C49.7639 19.125 49.8472 19.1389 49.9306 19.1667C50.0139 19.1944 50.0972 19.2222 50.1667 19.2778C50.2361 19.3333 50.2917 19.4028 50.3333 19.4861C50.375 19.5694 50.3889 19.6806 50.3889 19.7917V20.9306C50.3611 20.9444 50.3333 20.9444 50.2778 20.9583C50.2222 20.9722 50.1667 20.9722 50.1111 20.9722C50.0556 20.9722 50.0139 20.9722 49.9722 20.9583C49.9306 20.9444 49.8889 20.9306 49.8611 20.9167C49.8333 20.8889 49.8056 20.8611 49.7917 20.8333C49.7778 20.7917 49.7639 20.75 49.7639 20.6806V19.8194C49.7639 19.75 49.75 19.6944 49.7083 19.6667C49.6667 19.6389 49.6111 19.6111 49.5417 19.6111C49.5139 19.6111 49.4722 19.625 49.4306 19.6389C49.3889 19.6528 49.3611 19.6667 49.3472 19.6944C49.3472 19.7083 49.3472 19.7083 49.3472 19.7222C49.3472 19.7361 49.3472 19.7361 49.3472 19.75V20.9583C49.3194 20.9722 49.2778 20.9722 49.2361 20.9861C49.1806 21 49.125 21 49.0833 21C49.0278 21 48.9861 21 48.9444 20.9861C48.9028 20.9722 48.8611 20.9583 48.8333 20.9444C48.8056 20.9167 48.7778 20.8889 48.7639 20.8611C48.75 20.8194 48.7361 20.7778 48.7361 20.7083V19.8472C48.7361 19.7778 48.7083 19.7222 48.6667 19.6944C48.625 19.6667 48.5694 19.6389 48.5 19.6389C48.4583 19.6389 48.4167 19.6389 48.3889 19.6528C48.3611 19.6667 48.3333 19.6806 48.3056 19.6944V20.9583C48.2778 20.9722 48.25 20.9722 48.1944 20.9861C48.1389 21 48.0833 21 48.0278 21C47.9722 21 47.9306 21 47.8889 20.9861C47.8472 20.9722 47.8056 20.9583 47.7778 20.9444C47.75 20.9167 47.7222 20.8889 47.7083 20.8611C47.6944 20.8194 47.6806 20.7778 47.6806 20.7083V19.6111C47.6806 19.5417 47.6944 19.5 47.7222 19.4583C47.75 19.4167 47.7917 19.3889 47.8333 19.3472C47.9167 19.2917 48.0139 19.2361 48.1389 19.2083C48.2917 19.1389 48.4167 19.125 48.5417 19.125Z" fill="white"/>
<path d="M50.75 18.6944C50.75 18.5972 50.7778 18.5278 50.8472 18.4583C50.9028 18.3889 50.9861 18.3611 51.0972 18.3611C51.1944 18.3611 51.2778 18.3889 51.3472 18.4583C51.4028 18.5278 51.4444 18.5972 51.4444 18.6944C51.4444 18.7917 51.4167 18.8611 51.3472 18.9306C51.2917 19 51.2083 19.0278 51.0972 19.0278C51 19.0278 50.9167 19 50.8472 18.9306C50.7778 18.8611 50.75 18.7778 50.75 18.6944ZM51.3889 20.9306C51.3611 20.9306 51.3194 20.9444 51.2778 20.9444C51.2222 20.9583 51.1667 20.9583 51.125 20.9583C51.0694 20.9583 51.0278 20.9583 50.9861 20.9444C50.9444 20.9306 50.9028 20.9167 50.875 20.9028C50.8472 20.875 50.8194 20.8472 50.8056 20.8194C50.7917 20.7778 50.7778 20.7361 50.7778 20.6667V19.1944C50.8056 19.1944 50.8472 19.1806 50.8889 19.1806C50.9444 19.1667 51 19.1667 51.0417 19.1667C51.0972 19.1667 51.1389 19.1667 51.1806 19.1806C51.2222 19.1944 51.2639 19.2083 51.2917 19.2222C51.3194 19.25 51.3472 19.2778 51.3611 19.3056C51.375 19.3472 51.3889 19.3889 51.3889 19.4583V20.9306Z" fill="white"/>
</svg>
